{
  "roles": [
    "ROLE_STUDENT",
    "ROLE_SUPERVISOR",
    "ROLE_MENTOR",
    "ROLE_COACH",
    "ROLE_INTERNAL_ADMINISTRATION",
    "ROLE_STUDENT_DELEGATE",
    "ROLE_LOCAL_OFFICE",
    "ROLE_CREMEC_DELEGATE",
    "ROLE_OBC_MEMBER",
    "ROLE_OBC_CHAIRMAN",
    "ROLE_OBC_SECRETARY",
    "ROLE_COPROMOTOR",
    "ROLE_GUIDE",
    "ROLE_DELEGATEE",
    "ROLE_COORDINATOR",
    "ROLE_COORDINATION",
    "ROLE_DEVELOPER"
  ]
}
